20069 -27.4 -27.1 -26.8 -20.7 -10.5  -1.7   0.5  -0.3  -3.4 -12.3 -20.8 -24.3 -14.6
20087 -29.0 -29.0 -28.3 -21.0 -10.9  -1.7   0.7   0.0  -3.8 -13.4 -22.5 -25.8 -15.4
20292 -29.2 -29.5 -28.3 -21.3 -11.3  -1.7   1.3   0.6  -2.7 -12.9 -22.7 -26.1 -15.3
20476 -29.8 -29.3 -27.2 -20.7 -10.8  -0.8   3.2   2.8  -0.6 -11.4 -22.4 -26.0 -14.4
20667 -25.4 -25.7 -22.8 -17.7  -8.5  -0.7   4.2   4.8   1.7  -6.5 -15.6 -20.8 -11.1
20674 -26.8 -26.4 -23.4 -17.9  -9.1  -0.3   4.3   4.5   1.1  -8.5 -18.9 -22.9 -12.0
20744 -15.7 -15.5 -13.5 -11.0  -4.7   1.5   6.9   6.5   3.2  -3.0  -8.5 -12.0  -5.5
20891 -33.7 -32.1 -27.0 -18.1  -7.7   4.6  12.5   9.3   1.7 -12.5 -26.5 -29.7 -13.3
20982 -31.0 -29.6 -24.8 -16.9  -7.0   4.9  13.0   9.7   2.3 -11.8 -24.9 -27.6 -12.0
21432 -30.4 -30.8 -28.2 -21.4  -9.6  -0.6   2.5   1.6  -2.2 -12.5 -23.2 -27.7 -15.2
21802 -35.8 -33.1 -28.3 -19.1  -7.9   4.7  11.6   8.2   0.7 -13.3 -28.6 -32.1 -14.4
21908 -39.9 -35.4 -26.9 -15.3  -3.3   8.4  13.7   9.3   1.3 -13.3 -31.2 -35.5 -14.0
21921 -38.4 -34.6 -26.1 -15.7  -3.7   7.7  12.2   9.2   1.8 -12.4 -30.0 -35.0 -13.8
21931 -35.9 -33.7 -27.4 -18.0  -5.3   6.6  10.7   8.3   1.6 -12.7 -27.9 -32.6 -13.9
21946 -34.6 -33.6 -28.1 -19.1  -5.7   5.9   9.6   6.8   0.5 -12.9 -26.8 -32.4 -14.2
21982 -22.4 -25.3 -24.8 -18.1  -6.8   0.4   2.5   2.2  -1.0  -8.1 -14.9 -21.4 -11.5
22113 -11.3 -10.9  -6.5  -1.6   3.6   9.2  12.6  10.8   6.7   0.9  -5.0  -9.1  -0.1
22165  -9.3 -10.1  -7.7  -5.2  -0.9   4.3   9.0   8.4   5.8   1.5  -2.5  -5.9  -1.1
22217 -13.5 -12.9  -7.7  -1.8   4.5  10.9  14.4  11.9   6.7   0.8  -5.6 -10.7  -0.2
22235 -14.7 -14.1  -9.4  -3.8   2.6   9.6  13.2  10.6   5.7  -0.4  -6.9 -11.5  -1.6
22471 -15.7 -13.5  -7.8  -2.6   3.8  10.3  14.3  11.9   6.9   0.2  -6.3 -11.4  -0.8
22520 -11.8 -10.9  -6.1  -1.0   4.9  10.8  14.1  12.6   8.3   2.5  -3.4  -8.4   1.0
22550 -14.5 -12.2  -6.3  -0.2   6.5  12.6  15.8  13.2   7.8   1.6  -4.5 -10.3   0.8
22619 -12.2 -10.9  -5.8  -0.1   6.5  12.5  15.6  13.5   8.5   2.8  -3.1  -8.7   1.6
22641 -13.2 -11.2  -5.7   0.4   7.1  13.2  16.3  13.7   8.4   2.4  -3.7  -9.2   1.5
22676 -16.9 -13.9  -6.9  -0.3   6.6  13.0  16.3  13.1   7.2   0.6  -6.2 -12.3   0.0
22768 -14.6 -11.9  -5.3   1.5   8.7  14.4  17.2  14.3   8.4   1.9  -4.7 -10.5   1.6
22802 -10.3  -9.4  -4.6   1.6   8.5  13.9  16.5  14.6   9.3   4.2  -1.3  -6.6   3.0
22820 -11.4  -9.9  -4.4   1.4   8.3  13.5  16.0  14.0   8.8   3.3  -2.5  -7.6   2.5
22837 -12.0 -10.2  -4.6   2.1   9.2  14.1  16.6  14.6   9.3   3.6  -2.6  -8.0   2.7
23022 -20.0 -19.7 -16.0 -12.2  -5.1   1.5   6.8   6.3   3.5  -3.6 -10.7 -15.5  -7.1
23032 -22.6 -22.4 -18.3 -13.9  -5.9   1.4   7.2   6.8   3.3  -5.0 -13.1 -18.4  -8.4
23058 -28.0 -27.3 -22.6 -16.3  -6.9   3.2  12.1   9.6   3.7  -7.7 -18.0 -23.9 -10.2
23074 -28.9 -27.6 -22.4 -15.6  -6.3   4.9  13.8  10.7   3.8  -8.9 -21.2 -25.0 -10.2
23205 -18.9 -17.2 -11.8  -7.7  -0.5   7.4  13.4  10.4   5.6  -2.1  -9.7 -14.3  -3.8
23242 -25.6 -25.3 -19.4 -13.8  -5.5   3.2  11.6  10.1   4.5  -5.7 -16.2 -20.9  -8.6
23256 -27.5 -26.6 -20.7 -14.3  -5.3   5.4  14.3  10.8   4.3  -7.4 -18.3 -23.4  -9.1
23274 -28.9 -27.0 -19.4 -11.6  -2.6   8.3  15.6  12.0   4.9  -7.5 -20.4 -25.2  -8.5
23324 -21.1 -19.0 -12.3  -7.6  -0.3   8.4  14.6  10.7   5.3  -3.6 -12.0 -16.5  -4.5
23330 -24.8 -23.6 -16.2  -9.9  -1.8   7.9  14.4  10.8   5.1  -4.9 -15.6 -20.7  -6.6
23383 -35.2 -33.0 -22.1 -11.9  -1.9   7.2  13.8  10.8   3.9  -8.1 -24.6 -30.8 -11.0
23405 -18.6 -15.7  -8.7  -3.2   3.4  10.8  15.3  11.8   6.3  -1.4  -8.9 -14.1  -1.9
23445 -24.4 -23.1 -15.0  -8.7  -1.0   9.0  15.8  11.7   5.7  -5.1 -15.3 -20.7  -5.9
23463 -28.4 -26.3 -17.6  -9.9  -1.4   9.3  15.5  11.4   4.9  -7.1 -19.4 -24.7  -7.8
23472 -27.0 -24.8 -16.5  -8.6   0.1  10.1  16.6  12.6   5.6  -6.4 -18.6 -23.8  -6.7
23552 -25.7 -24.3 -16.2  -9.3  -1.2   9.7  16.3  12.1   5.7  -5.6 -16.2 -21.9  -6.4
23631 -22.5 -20.3 -11.2  -4.6   3.0  11.5  16.7  12.4   6.5  -2.9 -13.0 -18.8  -3.6
23662 -25.6 -23.8 -15.0  -7.4   0.9  11.2  16.9  12.5   5.9  -5.3 -16.4 -22.2  -5.7
23678 -25.1 -22.6 -13.3  -5.4   2.5  11.9  17.6  13.4   6.6  -4.1 -16.1 -22.2  -4.7
23711 -19.0 -15.9  -7.5  -0.7   5.8  12.6  16.5  12.4   6.7  -1.2  -8.7 -14.5  -1.1
23724 -21.2 -18.0  -8.0  -0.9   5.9  13.0  17.0  12.8   7.0  -1.9 -11.2 -17.5  -1.9
23734 -21.5 -18.9  -9.4  -2.3   4.9  12.8  17.3  13.0   7.0  -2.4 -11.7 -17.9  -2.4
23867 -22.2 -20.6 -11.0  -3.7   4.3  13.6  18.2  13.8   7.4  -2.4 -12.9 -19.0  -2.9
23884 -24.8 -22.6 -12.3  -3.5   4.4  13.4  18.1  13.9   7.0  -3.0 -14.6 -21.9  -3.8
23891 -30.8 -26.8 -14.3  -4.6   3.9  12.6  17.0  12.7   5.4  -5.5 -19.7 -28.2  -6.5
23914 -17.3 -14.2  -6.4   1.0   8.0  14.3  17.4  13.7   7.7  -0.3  -7.4 -13.3   0.3
23921 -19.8 -16.6  -6.8   1.0   7.6  14.2  17.4  13.6   7.6  -0.7  -9.2 -15.9  -0.6
23933 -20.7 -18.7  -9.1  -1.5   6.2  14.0  18.1  13.8   7.8  -1.4 -10.6 -16.7  -1.6
23955 -21.5 -20.1 -10.4  -2.4   5.4  13.8  18.1  13.8   7.7  -1.8 -11.8 -18.1  -2.3
23966 -22.7 -21.2 -11.3  -3.1   4.6  13.5  17.5  13.2   6.8  -2.8 -13.3 -20.2  -3.3
23986 -21.9 -20.5 -11.8  -4.5   3.1  12.0  16.5  12.4   5.4  -4.8 -14.6 -20.1  -4.1
24125 -38.9 -34.3 -23.5 -12.6  -1.6   9.4  14.6  10.5   2.3 -11.8 -29.9 -34.7 -12.5
24136 -42.8 -37.9 -26.2 -13.1  -0.3  10.7  14.7  10.2   2.3 -12.1 -32.7 -39.1 -13.9
24143 -38.9 -34.2 -23.7 -12.7  -0.6  10.5  14.7  10.8   2.8 -11.7 -30.2 -35.9 -12.4
24266 -47.0 -42.7 -30.0 -12.9   2.8  13.0  15.2  10.8   2.4 -14.9 -36.7 -43.6 -15.3
24329 -41.9 -37.4 -25.1 -12.4   0.5  10.8  14.5  10.2   2.4 -11.4 -31.2 -38.3 -13.3
24343 -39.2 -34.5 -22.9 -10.9   1.3  11.8  15.9  11.9   3.5 -10.7 -29.8 -36.7 -11.7
24382 -44.4 -40.3 -28.8 -12.7   3.2  13.3  15.0  10.9   2.5 -14.9 -34.9 -42.3 -14.5
24507 -36.2 -32.7 -18.9  -7.5   2.8  12.1  16.5  12.4   4.9  -7.3 -25.0 -32.1  -9.3
24606 -36.8 -33.1 -19.3  -7.7   3.0  12.1  16.1  11.9   4.2  -7.7 -25.6 -33.2  -9.7
24641 -37.9 -32.2 -19.4  -7.0   5.2  14.5  18.1  14.1   5.2  -8.0 -27.1 -35.2  -9.1
24661 -42.6 -37.0 -21.9  -7.9   5.1  14.0  17.1  13.3   4.5 -11.8 -32.4 -40.7 -11.7
24671 -44.2 -38.2 -26.5 -11.0   3.6  12.8  15.5  11.6   2.9 -13.4 -34.3 -41.7 -13.6
24688 -47.0 -42.9 -32.3 -14.4   2.0  11.5  13.8  10.0   1.7 -16.2 -37.2 -45.6 -16.4
24713 -34.8 -30.9 -18.0  -6.8   3.9  13.0  16.7  12.8   4.9  -7.0 -24.3 -32.2  -8.6
24738 -33.4 -30.2 -18.3  -5.9   6.0  14.3  17.5  13.9   5.6  -6.3 -23.6 -30.9  -7.6
24790 -37.6 -33.8 -25.9 -12.3   2.1  11.4  13.5  10.2   2.1 -14.2 -30.9 -38.1 -12.8
24817 -31.3 -28.6 -16.6  -5.7   4.7  13.4  17.0  13.1   5.3  -5.9 -21.2 -29.0  -7.1
24908 -29.6 -27.0 -15.1  -4.2   5.2  13.7  17.2  13.1   5.5  -5.2 -18.9 -27.5  -6.1
24959 -40.9 -35.9 -21.5  -6.1   6.7  15.4  18.7  14.9   5.7  -8.6 -29.2 -38.8 -10.0
24966 -41.5 -35.5 -20.4  -4.9   6.9  14.8  17.8  14.2   5.9  -7.9 -28.3 -39.0  -9.8
24967 -40.0 -34.7 -21.6  -6.3   6.2  13.9  16.6  13.0   4.6  -8.5 -27.8 -38.0 -10.2
25062 -26.2 -28.6 -26.3 -20.0  -7.0   0.7   2.7   2.2  -1.2 -10.7 -18.7 -24.7 -13.2
25138 -34.4 -32.7 -26.3 -14.3   0.9  11.4  13.2   9.1   1.8 -12.1 -27.2 -33.1 -12.0
25173 -24.5 -27.0 -24.9 -18.7  -6.4   1.5   4.3   3.2  -0.4  -9.0 -16.6 -23.5 -11.8
25206 -36.1 -34.4 -27.2 -14.5   0.9  11.2  13.7  10.0   2.6 -11.6 -28.0 -34.9 -12.4
25248 -33.4 -33.2 -28.9 -18.2  -2.6   9.4  12.1   8.5   0.6 -14.5 -28.5 -33.2 -13.5
25282 -22.7 -26.8 -24.7 -18.5  -6.0   1.6   5.3   4.4   0.8  -6.9 -14.3 -21.6 -10.8
25325 -35.7 -33.9 -26.8 -13.7   1.6  11.7  13.0   9.3   2.4 -11.4 -27.9 -34.9 -12.2
25356 -24.4 -26.1 -23.8 -16.6  -1.8   9.7  12.7   9.5   2.2 -10.5 -20.6 -25.7  -9.6
25378 -16.7 -19.0 -17.2 -12.3  -1.4   5.4   9.6   9.1   3.6  -4.9 -11.7 -16.5  -6.0
25399 -18.1 -22.5 -20.6 -14.6  -4.1   2.0   6.4   5.9   3.1  -2.3  -9.2 -17.1  -7.6
25400 -36.2 -33.5 -25.6 -12.0   3.2  13.3  15.3  11.8   3.7 -11.1 -28.3 -35.3 -11.2
25428 -35.9 -34.9 -28.0 -14.5   1.3  11.9  13.5  10.0   2.5 -11.6 -28.9 -35.8 -12.5
25503 -37.4 -34.3 -25.7 -11.5   3.8  13.4  14.8  11.2   3.5 -11.3 -29.5 -36.6 -11.6
25538 -27.3 -27.1 -23.6 -14.6  -0.2  10.5  12.8  10.1   2.7 -11.3 -23.9 -28.9 -10.1
25551 -24.0 -25.8 -22.4 -14.6  -1.0  10.6  13.8  10.8   3.7  -9.1 -20.1 -25.5  -8.6
25563 -19.5 -22.4 -20.4 -13.8  -2.7   5.4  10.6   9.6   3.8  -6.3 -15.2 -20.0  -7.6
25594 -13.2 -15.7 -13.9  -9.2  -0.6   4.9   8.6   8.4   4.7  -1.6  -7.4 -12.7  -4.0
25677 -14.7 -17.3 -16.0 -10.4  -1.8   4.9   9.0   8.7   4.3  -3.6 -10.0 -13.9  -5.1
25705 -36.2 -32.8 -24.6 -11.0   3.5  13.5  15.3  11.7   3.8 -11.1 -28.8 -35.7 -11.0
25745 -22.3 -22.4 -19.9 -11.6   0.9  10.0  13.1  11.4   5.0  -6.5 -18.1 -22.8  -6.9
25927 -20.2 -19.3 -15.9  -8.5  -0.1   6.6  11.8  12.1   7.7  -0.9 -10.8 -16.4  -4.5
25932 -13.4 -13.3 -11.4  -6.1   0.7   5.9   9.2  10.0   6.7   0.1  -7.3 -11.8  -2.6
25954 -13.9 -13.9 -12.2  -6.8   1.4   8.3  11.8  12.0   7.4  -0.9  -9.6 -13.6  -2.5
25956 -11.5 -12.8 -11.6  -6.8   1.0   6.5   9.9  10.3   6.6  -1.0  -8.3 -11.5  -2.4
26063  -7.8  -6.9  -2.2   4.0  10.9  15.6  17.7  16.2  11.1   5.7   0.1  -4.6   5.0
26157  -7.6  -7.0  -2.7   3.9  11.0  15.4  17.1  15.8  11.2   6.0   0.4  -4.5   4.9
26275  -8.7  -7.4  -2.4   4.8  12.1  15.9  17.3  15.7  10.6   5.4  -0.4  -5.4   4.8
26359  -7.8  -6.7  -2.0   5.0  12.1  15.7  16.9  15.6  10.8   5.5  -0.1  -4.9   5.0
26781  -8.9  -7.7  -2.9   4.9  12.4  15.6  16.8  15.6  10.5   4.9  -0.9  -5.6   4.6
26997  -8.5  -7.1  -1.8   6.8  13.9  16.9  18.0  16.9  11.8   5.8  -0.1  -4.7   5.7
27037 -12.8 -10.8  -4.6   2.8  10.5  14.8  17.0  14.7   9.0   3.0  -3.4  -8.9   2.6
27051 -13.9 -11.3  -5.0   2.2   9.6  14.3  16.7  14.2   8.4   2.1  -4.3  -9.9   1.9
27333 -12.0 -10.0  -4.0   4.0  11.6  15.8  17.9  15.7   9.9   3.5  -3.0  -8.4   3.4
27459 -11.5  -9.6  -3.8   5.2  12.7  16.5  18.5  16.5  10.7   3.7  -2.8  -7.9   4.0
27595 -13.1 -11.6  -5.1   4.5  13.1  17.1  19.5  17.3  11.2   3.5  -3.4  -9.3   3.6
27612  -9.3  -7.7  -2.2   5.8  13.1  16.6  18.2  16.4  11.0   5.1  -1.2  -6.1   5.0
27648 -11.2  -9.8  -4.0   5.7  13.2  16.7  18.5  16.7  11.1   4.2  -2.2  -7.5   4.3
27675 -12.3 -10.5  -5.1   5.1  13.2  16.7  18.6  16.7  11.0   3.5  -3.0  -8.5   3.8
27707  -9.6  -8.4  -3.1   5.4  12.7  16.0  17.3  16.0  10.9   4.8  -1.3  -5.9   4.6
27823 -10.5  -9.7  -4.3   5.5  13.4  16.9  18.3  16.9  11.3   4.5  -1.9  -6.9   4.5
27857 -10.8 -10.3  -4.4   6.1  14.0  17.6  19.1  17.5  11.9   4.6  -1.7  -7.1   4.7
27995 -12.7 -12.0  -5.1   6.6  15.1  18.8  20.8  18.9  13.0   4.6  -2.2  -8.6   4.8
28009 -16.0 -13.2  -6.1   2.0   9.2  14.4  17.1  13.9   8.1   0.7  -5.9 -11.9   1.0
28064 -18.4 -16.0  -6.7   1.2   8.3  15.0  18.5  14.5   8.7  -0.3  -8.6 -14.7   0.1
28138 -17.5 -15.0  -7.1   0.6   7.5  13.1  16.0  12.5   6.8  -1.4  -8.4 -13.8  -0.6
28224 -15.1 -12.5  -5.2   3.1  10.4  15.5  18.2  15.0   9.3   1.4  -5.6 -11.4   1.9
28255 -17.2 -14.9  -6.3   3.0  10.1  15.6  18.5  14.8   9.1   0.7  -7.3 -13.5   1.1
28275 -18.9 -17.1  -8.0   1.7   9.4  15.8  18.7  14.8   9.1   0.4  -8.4 -15.2   0.2
28418 -14.3 -12.5  -5.6   3.7  12.2  16.8  19.1  16.2  10.3   2.3  -4.7 -10.6   2.7
28434 -16.3 -14.8  -7.0   2.9  10.9  15.8  18.1  14.9   9.3   1.4  -6.1 -12.6   1.4
28493 -18.6 -17.4  -8.5   1.8   9.8  16.2  18.8  14.9   9.3   0.7  -8.5 -15.5   0.3
28552 -16.1 -14.2  -6.2   4.5  12.0  17.2  19.4  16.1  10.6   2.2  -5.9 -12.4   2.3
28573 -18.0 -17.1  -8.6   2.8  10.9  16.6  19.0  15.3   9.9   1.3  -7.5 -14.4   0.9
28666 -17.2 -16.0  -8.2   3.6  11.9  17.4  19.5  16.1  10.6   1.9  -7.0 -13.6   1.6
28698 -17.5 -16.7  -8.2   3.4  11.6  17.7  19.7  16.1  10.6   1.7  -7.5 -14.4   1.4
28704 -13.8 -13.0  -6.3   4.8  13.4  17.1  19.3  17.0  11.2   3.4  -3.3  -9.5   3.4
28722 -14.8 -13.2  -5.9   4.7  13.2  17.2  19.3  16.5  11.0   3.0  -4.2 -10.8   3.0
28748 -16.2 -14.6  -6.8   5.1  13.2  18.2  20.0  17.0  11.6   2.7  -5.7 -12.5   2.7
29111 -20.1 -18.4  -8.7  -0.7   7.0  14.8  18.6  14.2   8.3  -0.8 -10.7 -17.0  -1.1
29231 -20.0 -18.8  -9.5  -0.9   7.1  15.0  18.4  14.5   8.3  -0.6 -10.5 -17.5  -1.2
29263 -21.7 -20.5 -10.2  -0.9   7.3  15.0  18.5  14.7   8.0  -0.9 -11.1 -18.9  -1.7
29282 -24.1 -22.6 -11.1  -0.9   7.2  15.3  18.6  15.0   7.9  -1.2 -12.1 -21.4  -2.5
29313 -19.5 -18.3  -8.9   0.2   8.1  15.2  18.2  14.3   8.3  -0.2  -9.8 -16.9  -0.8
29328 -19.0 -17.9  -8.7   0.6   8.5  15.5  18.3  14.4   8.7   0.1  -9.4 -16.3  -0.4
29570 -16.0 -15.2  -6.7   1.3   9.2  15.7  18.4  15.2   8.9   0.9  -7.6 -13.9   0.8
29594 -19.1 -17.3  -8.2   0.6   8.7  15.5  17.9  14.9   8.2  -0.2  -9.4 -16.7  -0.4
29612 -18.5 -18.0  -9.6   1.6  10.4  16.8  19.3  15.6   9.9   1.1  -8.2 -15.4   0.4
29645 -18.6 -17.3  -8.8   1.3   9.5  16.2  18.6  15.4   9.5   1.3  -8.5 -15.9   0.2
29752 -15.0 -15.3  -9.7  -3.5   3.7  10.6  13.3  10.5   5.1  -3.1  -9.8 -13.4  -2.2
29789 -19.1 -17.1  -9.9  -2.0   5.3  11.2  13.6  11.1   5.0  -2.5 -10.4 -16.6  -2.6
29866 -19.0 -17.1  -6.5   3.4  11.0  17.3  19.6  16.7  10.0   1.7  -7.9 -15.9   1.1
29939 -16.3 -15.6  -7.9   3.1  12.1  17.6  19.7  16.7  10.9   2.6  -6.6 -13.9   1.9
30054 -29.1 -27.1 -15.3  -3.8   5.9  14.0  17.5  14.3   6.4  -4.0 -17.8 -26.2  -5.4
30089 -35.6 -31.1 -19.0  -5.2   5.0  13.6  17.0  13.4   5.2  -6.5 -23.6 -32.0  -8.2
30230 -27.1 -25.6 -13.9  -2.4   6.6  14.7  17.7  14.6   6.8  -3.1 -15.8 -24.5  -4.3
30252 -29.7 -27.1 -14.3  -2.1   6.4  13.9  17.4  14.5   6.8  -3.6 -17.7 -27.4  -5.2
30309 -20.8 -19.0  -9.9  -1.0   6.6  13.6  17.5  14.9   8.1  -0.4  -9.6 -17.6  -1.5
30372 -33.2 -29.5 -17.7  -5.0   4.7  12.5  15.9  13.0   5.1  -6.7 -21.3 -30.7  -7.7
30385 -31.7 -26.0 -14.6  -3.0   6.7  14.1  17.3  14.3   6.7  -5.0 -21.2 -30.3  -6.1
30393 -34.9 -30.2 -18.5  -6.2   4.3  12.3  15.7  12.6   4.4  -8.0 -23.8 -32.6  -8.7
30433 -22.1 -21.2 -13.0  -3.1   4.5  11.3  15.4  14.6   8.0  -1.1 -11.1 -17.4  -2.9
30521 -28.2 -24.4 -13.1  -1.2   7.4  14.2  17.1  14.0   6.5  -2.7 -14.7 -24.5  -4.1
30554 -28.5 -24.5 -14.3  -3.4   5.5  12.4  15.3  12.5   5.4  -5.1 -18.2 -26.5  -5.8
30612 -24.6 -22.2 -12.0  -0.3   8.0  15.2  18.1  15.3   8.5   0.0 -10.6 -20.4  -2.1
30636 -27.8 -24.3 -11.7  -0.4   8.0  14.9  17.9  15.6   8.4  -1.0 -12.4 -22.3  -2.9
30650 -27.0 -23.1 -13.1  -2.4   6.5  13.4  15.9  13.2   6.1  -3.4 -15.7 -24.1  -4.5
30673 -28.8 -24.2 -13.8  -1.9   7.1  13.7  16.6  13.7   6.5  -4.3 -18.8 -27.6  -5.2
30710 -18.8 -16.7  -7.5   1.4   9.3  15.1  17.5  15.1   8.7   0.9  -8.4 -16.0   0.0
30758 -25.9 -21.7 -10.4   0.2   8.6  15.4  17.8  15.2   7.9  -1.6 -13.8 -22.8  -2.6
30777 -28.5 -23.8 -11.9   0.9   9.6  15.8  18.4  15.7   8.7  -1.4 -15.7 -26.0  -3.2
30844 -25.7 -22.1 -11.6  -0.9   7.3  13.6  16.3  13.7   6.4  -2.6 -13.9 -22.0  -3.5
30879 -26.9 -22.7 -11.5   0.7   9.4  15.5  18.0  15.4   8.7  -1.0 -14.7 -24.6  -2.8
30925 -20.5 -17.2  -7.3   2.1   9.9  16.0  18.3  15.5   9.0   0.6  -9.8 -17.6  -0.1
30935 -26.4 -22.1 -10.4   0.6   8.7  14.5  16.8  14.3   7.5  -1.3 -13.0 -22.1  -2.7
30949 -21.1 -17.8  -8.3   1.0   9.2  15.0  17.0  14.8   8.3  -0.3 -11.7 -18.7  -1.1
30965 -26.5 -23.1 -11.2   0.8   9.4  16.2  18.7  16.3   8.9  -0.7 -13.9 -23.3  -2.4
31004 -26.9 -25.1 -15.6  -5.2   4.5  12.9  16.2  13.1   4.8  -6.7 -19.1 -25.2  -6.0
31088 -21.6 -18.8 -13.4  -5.0   1.4   7.2  12.0  13.2   8.3  -2.2 -14.6 -20.0  -4.5
31137 -38.8 -34.1 -21.9  -8.1   3.4  11.2  14.3  11.0   3.5  -9.9 -27.0 -37.2 -11.1
31168 -18.9 -16.7 -10.6  -3.6   1.6   7.1  11.8  13.1   9.1   0.2 -10.7 -16.5  -2.8
31174 -21.2 -19.7 -13.8  -4.4   1.8   6.3  10.4  11.9   8.2   0.6  -8.8 -18.2  -3.9
31253 -31.2 -24.3 -12.5  -0.8   8.3  15.1  17.7  15.2   8.3  -3.1 -19.6 -30.0  -4.7
31329 -31.5 -25.0 -13.6  -1.9   6.8  13.8  17.0  14.4   7.3  -3.4 -18.6 -29.8  -5.4
31369 -23.2 -19.7 -11.9  -2.0   5.1  12.9  16.6  15.7  10.4   1.6 -10.3 -20.3  -2.1
31416 -28.0 -22.3 -11.3   0.0   8.0  14.6  17.9  16.5  10.2   0.6 -13.7 -25.0  -2.7
31439 -24.6 -20.2 -11.0  -0.5   7.0  14.2  17.5  16.5  10.9   1.9 -11.1 -21.8  -1.8
31478 -31.1 -26.5 -16.0  -4.3   4.7  11.8  15.3  12.6   5.7  -5.3 -20.0 -30.1  -6.9
31707 -20.3 -16.0  -6.3   4.5  12.1  17.9  21.1  19.5  13.0   3.9  -8.0 -17.9   2.0
31770 -16.5 -14.2  -7.0   1.1   6.0  10.5  14.4  16.4  12.6   5.2  -4.8 -13.0   0.9
31829 -11.4  -9.4  -4.1   1.4   5.3   9.2  13.7  16.3  13.6   6.9  -2.1  -9.0   2.5
31960 -13.1 -10.3  -2.5   4.4   9.6  12.9  17.3  19.5  15.3   8.3  -1.3  -9.5   4.2
31961 -17.9 -13.7  -3.2   5.8  11.9  15.9  20.0  20.8  15.0   7.0  -3.4 -14.0   3.7
31989  -8.3  -6.3  -1.0   4.4   8.6  11.9  16.7  19.1  15.4   9.0   1.2  -5.6   5.4
32027 -20.0 -18.6 -12.0  -3.2   2.3   9.4  13.8  15.3  11.6   3.5  -7.3 -16.0  -1.8
32061 -17.8 -15.5  -8.4   0.3   5.7  11.0  15.1  16.0  11.8   4.5  -4.8 -12.7   0.4
32076 -17.2 -15.9 -10.1  -2.0   2.6   6.2   9.9  12.4   9.8   3.3  -6.1 -13.2  -1.7
32098 -16.6 -14.0  -7.2   0.3   4.9   9.2  13.5  15.4  12.0   4.9  -4.7 -12.9   0.4
32099 -12.5 -12.4  -7.6  -1.4   1.5   4.6   8.9  11.6  10.7   6.1  -1.0  -7.2   0.1
32150 -13.5 -12.6  -6.3   1.7   6.9  11.3  15.4  16.7  12.7   5.9  -2.0  -8.7   2.3
32165  -4.9  -6.1  -3.1   1.5   5.3   8.4  12.1  15.7  14.5  10.4   4.1  -1.0   4.7
32213  -5.1  -5.8  -4.2  -1.4   1.1   4.3   7.5   9.3   8.6   5.2   0.1  -2.8   1.4
32252 -17.9 -16.8 -13.2  -5.9   1.4   6.7  10.0  10.6   7.1   1.0  -7.3 -13.7  -3.2
32287 -14.9 -14.0 -10.7  -4.2   2.6   7.7  11.3  11.8   7.8   2.2  -5.4 -11.3  -1.4
32389 -16.5 -13.7  -9.4  -2.4   4.7  11.4  14.7  13.5   8.7   2.1  -7.2 -14.1  -0.7
32477 -15.1 -14.0  -9.8  -3.0   2.9   7.9  11.5  12.0   8.4   3.0  -5.4 -11.0  -1.1
32509  -6.5  -5.9  -4.5  -0.8   3.3   7.7  11.2  12.5   9.9   4.8  -1.8  -5.0   2.1
32562 -12.7 -11.8  -8.3  -2.5   2.6   7.0  10.7  11.5   8.7   3.7  -4.0  -9.3  -0.4
32618  -3.3  -3.5  -2.8  -0.6   2.2   5.4   8.7  10.5   9.1   5.1   0.4  -2.0   2.4
34110  -8.8  -7.8  -2.4   7.2  14.3  17.6  18.9  17.9  12.5   5.8  -0.4  -5.2   5.8
34123  -8.8  -8.1  -2.3   7.7  14.9  18.1  19.6  18.4  12.9   6.0  -0.2  -5.2   6.1
34152 -10.1  -9.4  -3.5   7.3  15.0  18.6  20.2  19.0  13.1   5.4  -1.1  -6.5   5.7
34163 -11.4 -11.0  -4.8   6.6  14.5  18.3  20.2  18.6  12.7   4.7  -1.9  -7.7   4.9
34186 -11.9 -11.5  -4.9   7.3  15.7  19.5  21.8  20.0  13.9   5.1  -1.8  -8.0   5.4
34579  -8.4  -8.1  -1.0  10.2  17.9  22.3  24.8  23.0  16.6   7.7   1.3  -4.3   8.5
34720  -4.5  -3.6   1.4  10.3  17.1  21.1  23.2  22.4  17.1   9.6   3.7  -0.9   9.7
34740  -4.4  -3.7   1.7  10.8  16.7  20.7  23.5  22.7  17.3   9.5   3.9  -0.9   9.8
34866  -5.2  -4.9   1.6  11.0  18.1  22.8  25.6  24.0  17.9   9.4   3.7  -1.2  10.2
34880  -5.5  -5.0   1.3  11.1  18.3  22.8  25.2  23.3  17.4   9.2   3.2  -1.8  10.0
34927  -1.1   0.3   4.7  12.1  17.2  20.9  23.3  22.6  17.8  11.2   6.6   2.3  11.5
34949  -3.4  -2.6   1.7   9.7  15.2  19.0  21.7  20.8  16.0   9.3   4.2  -0.2   9.3
35011 -13.6 -13.0  -5.7   6.3  15.0  19.1  21.2  19.2  13.1   4.0  -3.0  -9.4   4.4
36038 -14.2 -14.0  -7.6   3.4  12.1  17.4  19.2  16.6  11.3   3.3  -5.6 -12.2   2.5
36064  -8.2  -8.4  -3.2   3.3   9.4  14.3  16.7  15.1  10.0   3.4  -2.5  -6.5   3.6
36096 -30.4 -26.2 -12.5   3.3  11.8  17.9  19.6  17.0  10.0   0.1 -14.8 -26.7  -2.6
36229 -20.8 -17.5  -8.3   2.7   9.7  14.4  16.1  13.8   8.5   0.5 -10.1 -19.0  -0.8
36259 -28.0 -25.6 -13.5  -0.7   6.7  12.3  14.0  12.1   6.1  -3.6 -16.2 -25.6  -5.2
36307 -32.5 -30.0 -18.4  -0.7  10.5  16.4  17.7  15.8   9.4   0.2 -14.3 -27.4  -4.4
37001   1.8   2.5   5.4  11.0  15.5  20.3  22.7  22.4  18.1  12.5   8.6   4.7  12.1
37061  -4.1  -3.1   2.4  10.8  17.3  21.8  24.3  23.3  17.9  10.1   4.7  -0.6  10.4
37107   0.3   1.7   4.6  10.0  14.0  17.0  19.6  19.2  15.5  10.6   6.4   2.2  10.1
37126  -6.0  -5.7  -3.1   1.7   5.7   8.7  11.0  10.8   7.7   3.7   0.2  -3.7   2.6
37228  -3.7  -2.5   2.0   9.2  14.1  17.6  19.8  18.7  14.3   8.3   3.6  -0.8   8.4
37470   1.9   1.9   4.4  10.2  16.3  21.5  24.6  24.0  19.9  13.9   9.0   4.7  12.7
37472   0.3   0.8   4.1  10.3  16.6  21.8  24.8  24.0  19.7  13.3   8.0   3.3  12.3
37663  -1.5  -0.9   2.8   9.3  13.8  17.2  19.8  19.0  15.0   9.2   5.8   1.1   9.2
31152 -35.6 -28.9 -16.7  -3.7   6.4  14.1  17.0  13.9   6.1  -6.3 -23.7 -33.9  -7.6
